{
  "data": {
    "site": {
      "siteMetadata": {
        "title": "EzLoct- Product based Company.",
        "description": "A slightly opinionated Gatsby Landing Page starter template. ",
        "author": "Ingwalabs"
      }
    }
  }
}
